<?xml version="1.0" encoding="UTF-8"?>
<Project>
   <description>Katalon Automation Test with Android and iOS Mobile Application with Saucedemo app</description>
   <name>katalon-mobile-saucedemo</name>
   <tag></tag>
   <UUID>4dfea154-5a75-43b0-a6bc-bd1010196724</UUID>
   <migratedVersion>5.9.0</migratedVersion>
   <pageLoadTimeout>0</pageLoadTimeout>
   <sourceContent>
      <sourceFolderList>
         <sourceFolderConfiguration>
            <url>Include/scripts/groovy</url>
         </sourceFolderConfiguration>
      </sourceFolderList>
      <systemFolderList>
         <systemFolderConfiguration>
            <url>Include/scripts/groovy</url>
         </systemFolderConfiguration>
         <systemFolderConfiguration>
            <url>Include/features</url>
         </systemFolderConfiguration>
         <systemFolderConfiguration>
            <url>Include/config</url>
         </systemFolderConfiguration>
      </systemFolderList>
   </sourceContent>
   <timeStampInProperties>false</timeStampInProperties>
   <type>MOBILE</type>
</Project>
